== BEGIN ==========================
 # tag: nasbt.600.mem
 NAS Parallel Benchmarks (NPB3.4-OMP) - BT Benchmark

 Reading from input file inputbt.data
 Size:  600x 600x 600
 Iterations:   50       dt:   0.0001000
 Number of available threads:    32

 Time step    1
 Time step   20
 Time step   40
 Unknown class
 RMS-norms of residual
           1                 NaN
           2                 NaN
           3                 NaN
           4                 NaN
           5                 NaN
 RMS-norms of solution error
           1                 NaN
           2                 NaN
           3                 NaN
           4                 NaN
           5                 NaN
 No reference values provided
 No verification performed


 BT Benchmark Completed.
 Class           =                        U
 Size            =            600x 600x 600
 Iterations      =                       50
 Time in seconds =                  2549.17
 Total threads   =                       32
 Avail threads   =                       32
 Mop/s total     =                 14614.20
 Mop/s/thread    =                   456.69
 Operation type  =           floating point
 Verification    =             UNSUCCESSFUL
 Version         =                    3.4.1
 Compile date    =              31 Oct 2020

 Compile options:
    FC           = gfortran
    FLINK        = $(FC)
    F_LIB        = (none)
    F_INC        = (none)
    FFLAGS       = -O3 -fopenmp
    FLINKFLAGS   = $(FFLAGS)
    RAND         = (none)


 Please send all errors/feedbacks to:

 NPB Development Team
 npb@nas.nasa.gov
== END ============================


== BEGIN ==========================
 # tag: nasbt.600.mem

 NAS Parallel Benchmarks (NPB3.4-OMP) - BT Benchmark

 Reading from input file inputbt.data
 Size:  600x 600x 600
 Iterations:   50       dt:   0.0001000
 Number of available threads:    32

 Time step    1
 Time step   20
 Time step   40
 Unknown class
 RMS-norms of residual
           1                 NaN
           2                 NaN
           3                 NaN
           4                 NaN
           5                 NaN
 RMS-norms of solution error
           1                 NaN
           2                 NaN
           3                 NaN
           4                 NaN
           5                 NaN
 No reference values provided
 No verification performed


 BT Benchmark Completed.
 Class           =                        U
 Size            =            600x 600x 600
 Iterations      =                       50
 Time in seconds =                  2702.39
 Total threads   =                       32
 Avail threads   =                       32
 Mop/s total     =                 13785.62
 Mop/s/thread    =                   430.80
 Operation type  =           floating point
 Verification    =             UNSUCCESSFUL
 Version         =                    3.4.1
 Compile date    =              31 Oct 2020

 Compile options:
    FC           = gfortran
    FLINK        = $(FC)
    F_LIB        = (none)
    F_INC        = (none)
    FFLAGS       = -O3 -fopenmp
    FLINKFLAGS   = $(FFLAGS)
    RAND         = (none)


 Please send all errors/feedbacks to:

 NPB Development Team
 npb@nas.nasa.gov


== END ============================
